{
  "rateDetail": {
    "paginator": {
      "items": 13724,
      "lastPage": 99,
      "page": 1
    },
    "rateCount": {
      "picNum": 0,
      "shop": 0,
      "total": 13724,
      "used": 545
    },
    "rateDanceInfo": {
      "currentMilles": 1503456334211,
      "intervalMilles": 2687180220,
      "showChooseTopic": false,
      "storeType": 4
    },
    "rateList": [
      {
        "aliMallSeller": false,
        "anony": true,
        "appendComment": "",
        "attributes": "",
        "attributesMap": "",
        "aucNumId": "",
        "auctionPicUrl": "",
        "auctionPrice": "",
        "auctionSku": "颜色分类:纪念粉;尺码:80B",
        "auctionTitle": "",
        "buyCount": 0,
        "carServiceLocation": "",
        "cmsSource": "天猫",
        "displayRatePic": "",
        "displayRateSum": 0,
        "displayUserLink": "",
        "displayUserNick": "亲***5",
        "displayUserNumId": "",
        "displayUserRateLink": "",
        "dsr": 0,
        "fromMall": true,
        "fromMemory": 0,
        "gmtCreateTime": 1503455168000,
        "goldUser": true,
        "id": 321196996611,
        "pics": "",
        "picsSmall": "",
        "position": "",
        "rateContent": "大小合适，就是有点气味",
        "rateDate": "2017-08-23 10:26:08",
        "reply": "",
        "sellerId": 470355944,
        "serviceRateContent": "",
        "structuredRateList": [],
        "tamllSweetLevel": 0,
        "tmallSweetPic": "",
        "tradeEndTime": 1503455059000,
        "tradeId": "",
        "useful": true,
        "userIdEncryption": "",
        "userInfo": "",
        "userVipLevel": 0,
        "userVipPic": ""
      },
      {
        "aliMallSeller": false,
        "anony": true,
        "appendComment": "",
        "attributes": "",
        "attributesMap": "",
        "aucNumId": "",
        "auctionPicUrl": "",
        "auctionPrice": "",
        "auctionSku": "颜色分类:浅绿;尺码:75B",
        "auctionTitle": "",
        "buyCount": 0,
        "carServiceLocation": "",
        "cmsSource": "天猫",
        "displayRatePic": "",
        "displayRateSum": 0,
        "displayUserLink": "",
        "displayUserNick": "穷***心",
        "displayUserNumId": "",
        "displayUserRateLink": "",
        "dsr": 0,
        "fromMall": true,
        "fromMemory": 0,
        "gmtCreateTime": 1503389220000,
        "goldUser": true,
        "id": 321040978475,
        "pics": "",
        "picsSmall": "",
        "position": "",
        "rateContent": "老客户了，全五星好评！",
        "rateDate": "2017-08-22 16:07:00",
        "reply": "",
        "sellerId": 470355944,
        "serviceRateContent": "",
        "structuredRateList": [],
        "tamllSweetLevel": 1,
        "tmallSweetPic": "tmall-grade-t1-18.png",
        "tradeEndTime": 1503042926000,
        "tradeId": "",
        "useful": true,
        "userIdEncryption": "",
        "userInfo": "",
        "userVipLevel": 0,
        "userVipPic": ""
      },
      {
        "aliMallSeller": false,
        "anony": true,
        "appendComment": "",
        "attributes": "",
        "attributesMap": "",
        "aucNumId": "",
        "auctionPicUrl": "",
        "auctionPrice": "",
        "auctionSku": "颜色分类:个性黑;尺码:80B",
        "auctionTitle": "",
        "buyCount": 0,
        "carServiceLocation": "",
        "cmsSource": "天猫",
        "displayRatePic": "",
        "displayRateSum": 0,
        "displayUserLink": "",
        "displayUserNick": "k***e",
        "displayUserNumId": "",
        "displayUserRateLink": "",
        "dsr": 0,
        "fromMall": true,
        "fromMemory": 0,
        "gmtCreateTime": 1503378283000,
        "goldUser": false,
        "id": 321128634468,
        "pics": "",
        "picsSmall": "",
        "position": "",
        "rateContent": "比之前买的买的另一款文胸罩杯稍微偏小了点",
        "rateDate": "2017-08-22 13:04:43",
        "reply": "",
        "sellerId": 470355944,
        "serviceRateContent": "",
        "structuredRateList": [],
        "tamllSweetLevel": 0,
        "tmallSweetPic": "",
        "tradeEndTime": 1503378166000,
        "tradeId": "",
        "useful": true,
        "userIdEncryption": "",
        "userInfo": "",
        "userVipLevel": 0,
        "userVipPic": ""
      },
      {
        "aliMallSeller": false,
        "anony": true,
        "appendComment": "",
        "attributes": "",
        "attributesMap": "",
        "aucNumId": "",
        "auctionPicUrl": "",
        "auctionPrice": "",
        "auctionSku": "颜色分类:肤色;尺码:80A",
        "auctionTitle": "",
        "buyCount": 0,
        "carServiceLocation": "",
        "cmsSource": "天猫",
        "displayRatePic": "",
        "displayRateSum": 0,
        "displayUserLink": "",
        "displayUserNick": "t***9",
        "displayUserNumId": "",
        "displayUserRateLink": "",
        "dsr": 0,
        "fromMall": true,
        "fromMemory": 0,
        "gmtCreateTime": 1503370940000,
        "goldUser": true,
        "id": 321096195670,
        "pics": "",
        "picsSmall": "",
        "position": "",
        "rateContent": "一如既往的好，很舒服",
        "rateDate": "2017-08-22 11:02:20",
        "reply": "",
        "sellerId": 470355944,
        "serviceRateContent": "",
        "structuredRateList": [],
        "tamllSweetLevel": 0,
        "tmallSweetPic": "",
        "tradeEndTime": 1503323853000,
        "tradeId": "",
        "useful": true,
        "userIdEncryption": "",
        "userInfo": "",
        "userVipLevel": 0,
        "userVipPic": ""
      },
      {
        "aliMallSeller": false,
        "anony": true,
        "appendComment": "",
        "attributes": "",
        "attributesMap": "",
        "aucNumId": "",
        "auctionPicUrl": "",
        "auctionPrice": "",
        "auctionSku": "颜色分类:个性黑;尺码:75C",
        "auctionTitle": "",
        "buyCount": 0,
        "carServiceLocation": "",
        "cmsSource": "天猫",
        "displayRatePic": "",
        "displayRateSum": 0,
        "displayUserLink": "",
        "displayUserNick": "b***2",
        "displayUserNumId": "",
        "displayUserRateLink": "",
        "dsr": 0,
        "fromMall": true,
        "fromMemory": 0,
        "gmtCreateTime": 1503366891000,
        "goldUser": false,
        "id": 320984843856,
        "pics": "",
        "picsSmall": "",
        "position": "",
        "rateContent": "穿着很舒服很好",
        "rateDate": "2017-08-22 09:54:51",
        "reply": "",
        "sellerId": 470355944,
        "serviceRateContent": "",
        "structuredRateList": [],
        "tamllSweetLevel": 0,
        "tmallSweetPic": "",
        "tradeEndTime": 1502422643000,
        "tradeId": "",
        "useful": true,
        "userIdEncryption": "",
        "userInfo": "",
        "userVipLevel": 0,
        "userVipPic": ""
      },
      {
        "aliMallSeller": false,
        "anony": true,
        "appendComment": "",
        "attributes": "",
        "attributesMap": "",
        "aucNumId": "",
        "auctionPicUrl": "",
        "auctionPrice": "",
        "auctionSku": "颜色分类:肤色;尺码:85B",
        "auctionTitle": "",
        "buyCount": 0,
        "carServiceLocation": "",
        "cmsSource": "天猫",
        "displayRatePic": "",
        "displayRateSum": 0,
        "displayUserLink": "",
        "displayUserNick": "我***6",
        "displayUserNumId": "",
        "displayUserRateLink": "",
        "dsr": 0,
        "fromMall": true,
        "fromMemory": 0,
        "gmtCreateTime": 1503364512000,
        "goldUser": false,
        "id": 321059659117,
        "pics": "",
        "picsSmall": "",
        "position": "",
        "rateContent": "已多次购买水中花品牌的内衣裤，赞一个?",
        "rateDate": "2017-08-22 09:15:12",
        "reply": "",
        "sellerId": 470355944,
        "serviceRateContent": "",
        "structuredRateList": [],
        "tamllSweetLevel": 0,
        "tmallSweetPic": "",
        "tradeEndTime": 1503304833000,
        "tradeId": "",
        "useful": true,
        "userIdEncryption": "",
        "userInfo": "",
        "userVipLevel": 0,
        "userVipPic": ""
      },
      {
        "aliMallSeller": false,
        "anony": true,
        "appendComment": "",
        "attributes": "",
        "attributesMap": "",
        "aucNumId": "",
        "auctionPicUrl": "",
        "auctionPrice": "",
        "auctionSku": "颜色分类:纪念粉;尺码:85B",
        "auctionTitle": "",
        "buyCount": 0,
        "carServiceLocation": "",
        "cmsSource": "天猫",
        "displayRatePic": "",
        "displayRateSum": 0,
        "displayUserLink": "",
        "displayUserNick": "我***6",
        "displayUserNumId": "",
        "displayUserRateLink": "",
        "dsr": 0,
        "fromMall": true,
        "fromMemory": 0,
        "gmtCreateTime": 1503364512000,
        "goldUser": false,
        "id": 321059659118,
        "pics": "",
        "picsSmall": "",
        "position": "",
        "rateContent": "已多次购买水中花品牌的内衣裤，赞一个?",
        "rateDate": "2017-08-22 09:15:12",
        "reply": "",
        "sellerId": 470355944,
        "serviceRateContent": "",
        "structuredRateList": [],
        "tamllSweetLevel": 0,
        "tmallSweetPic": "",
        "tradeEndTime": 1503304833000,
        "tradeId": "",
        "useful": true,
        "userIdEncryption": "",
        "userInfo": "",
        "userVipLevel": 0,
        "userVipPic": ""
      },
      {
        "aliMallSeller": false,
        "anony": true,
        "appendComment": "",
        "attributes": "",
        "attributesMap": "",
        "aucNumId": "",
        "auctionPicUrl": "",
        "auctionPrice": "",
        "auctionSku": "颜色分类:个性黑;尺码:70B",
        "auctionTitle": "",
        "buyCount": 0,
        "carServiceLocation": "",
        "cmsSource": "天猫",
        "displayRatePic": "",
        "displayRateSum": 0,
        "displayUserLink": "",
        "displayUserNick": "c***3",
        "displayUserNumId": "",
        "displayUserRateLink": "",
        "dsr": 0,
        "fromMall": true,
        "fromMemory": 0,
        "gmtCreateTime": 1503361161000,
        "goldUser": false,
        "id": 320994350442,
        "pics": "",
        "picsSmall": "",
        "position": "",
        "rateContent": "第二次买了，一如既往的好",
        "rateDate": "2017-08-22 08:19:21",
        "reply": "",
        "sellerId": 470355944,
        "serviceRateContent": "",
        "structuredRateList": [],
        "tamllSweetLevel": 0,
        "tmallSweetPic": "",
        "tradeEndTime": 1503361135000,
        "tradeId": "",
        "useful": true,
        "userIdEncryption": "",
        "userInfo": "",
        "userVipLevel": 0,
        "userVipPic": ""
      },
      {
        "aliMallSeller": false,
        "anony": true,
        "appendComment": "",
        "attributes": "",
        "attributesMap": "",
        "aucNumId": "",
        "auctionPicUrl": "",
        "auctionPrice": "",
        "auctionSku": "颜色分类:个性黑;尺码:80A",
        "auctionTitle": "",
        "buyCount": 0,
        "carServiceLocation": "",
        "cmsSource": "天猫",
        "displayRatePic": "",
        "displayRateSum": 0,
        "displayUserLink": "",
        "displayUserNick": "海***香",
        "displayUserNumId": "",
        "displayUserRateLink": "",
        "dsr": 0,
        "fromMall": true,
        "fromMemory": 0,
        "gmtCreateTime": 1503317626000,
        "goldUser": true,
        "id": 321026266930,
        "pics": "",
        "picsSmall": "",
        "position": "",
        "rateContent": "很不错",
        "rateDate": "2017-08-21 20:13:46",
        "reply": "",
        "sellerId": 470355944,
        "serviceRateContent": "",
        "structuredRateList": [],
        "tamllSweetLevel": 0,
        "tmallSweetPic": "",
        "tradeEndTime": 1503317550000,
        "tradeId": "",
        "useful": true,
        "userIdEncryption": "",
        "userInfo": "",
        "userVipLevel": 0,
        "userVipPic": ""
      },
      {
        "aliMallSeller": false,
        "anony": true,
        "appendComment": "",
        "attributes": "",
        "attributesMap": "",
        "aucNumId": "",
        "auctionPicUrl": "",
        "auctionPrice": "",
        "auctionSku": "颜色分类:肤色;尺码:80A",
        "auctionTitle": "",
        "buyCount": 0,
        "carServiceLocation": "",
        "cmsSource": "天猫",
        "displayRatePic": "",
        "displayRateSum": 0,
        "displayUserLink": "",
        "displayUserNick": "海***香",
        "displayUserNumId": "",
        "displayUserRateLink": "",
        "dsr": 0,
        "fromMall": true,
        "fromMemory": 0,
        "gmtCreateTime": 1503317534000,
        "goldUser": true,
        "id": 320957807110,
        "pics": "",
        "picsSmall": "",
        "position": "",
        "rateContent": "很舒适",
        "rateDate": "2017-08-21 20:12:14",
        "reply": "",
        "sellerId": 470355944,
        "serviceRateContent": "",
        "structuredRateList": [],
        "tamllSweetLevel": 0,
        "tmallSweetPic": "",
        "tradeEndTime": 1503317511000,
        "tradeId": "",
        "useful": true,
        "userIdEncryption": "",
        "userInfo": "",
        "userVipLevel": 0,
        "userVipPic": ""
      },
      {
        "aliMallSeller": false,
        "anony": true,
        "appendComment": "",
        "attributes": "",
        "attributesMap": "",
        "aucNumId": "",
        "auctionPicUrl": "",
        "auctionPrice": "",
        "auctionSku": "颜色分类:肤色;尺码:75A",
        "auctionTitle": "",
        "buyCount": 0,
        "carServiceLocation": "",
        "cmsSource": "天猫",
        "displayRatePic": "",
        "displayRateSum": 0,
        "displayUserLink": "",
        "displayUserNick": "t***8",
        "displayUserNumId": "",
        "displayUserRateLink": "",
        "dsr": 0,
        "fromMall": true,
        "fromMemory": 0,
        "gmtCreateTime": 1503304488000,
        "goldUser": false,
        "id": 320902614287,
        "pics": "",
        "picsSmall": "",
        "position": "20120-12-12,16;641-11-6,11;",
        "rateContent": "不是我的菜，垫得太厚了。懒得退换，将就用。",
        "rateDate": "2017-08-21 16:34:48",
        "reply": "",
        "sellerId": 470355944,
        "serviceRateContent": "",
        "structuredRateList": [],
        "tamllSweetLevel": 0,
        "tmallSweetPic": "",
        "tradeEndTime": 1502170465000,
        "tradeId": "",
        "useful": true,
        "userIdEncryption": "",
        "userInfo": "",
        "userVipLevel": 0,
        "userVipPic": ""
      },
      {
        "aliMallSeller": false,
        "anony": true,
        "appendComment": "",
        "attributes": "",
        "attributesMap": "",
        "aucNumId": "",
        "auctionPicUrl": "",
        "auctionPrice": "",
        "auctionSku": "颜色分类:个性黑;尺码:75B",
        "auctionTitle": "",
        "buyCount": 0,
        "carServiceLocation": "",
        "cmsSource": "天猫",
        "displayRatePic": "",
        "displayRateSum": 0,
        "displayUserLink": "",
        "displayUserNick": "云***1",
        "displayUserNumId": "",
        "displayUserRateLink": "",
        "dsr": 0,
        "fromMall": true,
        "fromMemory": 0,
        "gmtCreateTime": 1503296477000,
        "goldUser": false,
        "id": 321013124468,
        "pics": "",
        "picsSmall": "",
        "position": "241-12-6,8;",
        "rateContent": "终于买对了，无痕!",
        "rateDate": "2017-08-21 14:21:17",
        "reply": "",
        "sellerId": 470355944,
        "serviceRateContent": "",
        "structuredRateList": [],
        "tamllSweetLevel": 0,
        "tmallSweetPic": "",
        "tradeEndTime": 1503296342000,
        "tradeId": "",
        "useful": true,
        "userIdEncryption": "",
        "userInfo": "",
        "userVipLevel": 0,
        "userVipPic": ""
      },
      {
        "aliMallSeller": false,
        "anony": true,
        "appendComment": "",
        "attributes": "",
        "attributesMap": "",
        "aucNumId": "",
        "auctionPicUrl": "",
        "auctionPrice": "",
        "auctionSku": "颜色分类:浅绿;尺码:85C",
        "auctionTitle": "",
        "buyCount": 0,
        "carServiceLocation": "",
        "cmsSource": "天猫",
        "displayRatePic": "",
        "displayRateSum": 0,
        "displayUserLink": "",
        "displayUserNick": "1***l",
        "displayUserNumId": "",
        "displayUserRateLink": "",
        "dsr": 0,
        "fromMall": true,
        "fromMemory": 0,
        "gmtCreateTime": 1503291872000,
        "goldUser": false,
        "id": 321087056193,
        "pics": "",
        "picsSmall": "",
        "position": "920-11-48,49;1341-12-18,24;441-12-0,8;241-12-9,17;1065041-11-25,30;",
        "rateContent": "第一次买无钢圈的 第一次穿一片式的 喜欢这个颜色 聚拢也不错 希望洗几次以后不会变松 被圈粉了 赞",
        "rateDate": "2017-08-21 13:04:32",
        "reply": "",
        "sellerId": 470355944,
        "serviceRateContent": "",
        "structuredRateList": [],
        "tamllSweetLevel": 0,
        "tmallSweetPic": "",
        "tradeEndTime": 1503291788000,
        "tradeId": "",
        "useful": true,
        "userIdEncryption": "",
        "userInfo": "",
        "userVipLevel": 0,
        "userVipPic": ""
      },
      {
        "aliMallSeller": false,
        "anony": false,
        "appendComment": "",
        "attributes": "",
        "attributesMap": "",
        "aucNumId": "",
        "auctionPicUrl": "",
        "auctionPrice": "",
        "auctionSku": "颜色分类:个性黑;尺码:75B",
        "auctionTitle": "",
        "buyCount": 0,
        "carServiceLocation": "",
        "cmsSource": "天猫",
        "displayRatePic": "",
        "displayRateSum": 0,
        "displayUserLink": "",
        "displayUserNick": "酷***亮",
        "displayUserNumId": "",
        "displayUserRateLink": "",
        "dsr": 0,
        "fromMall": true,
        "fromMemory": 0,
        "gmtCreateTime": 1503284981000,
        "goldUser": false,
        "id": 320901144732,
        "pics": "",
        "picsSmall": "",
        "position": "",
        "rateContent": "可以",
        "rateDate": "2017-08-21 11:09:41",
        "reply": "",
        "sellerId": 470355944,
        "serviceRateContent": "",
        "structuredRateList": [],
        "tamllSweetLevel": 4,
        "tmallSweetPic": "tmall-grade-t4-18.png",
        "tradeEndTime": 1503284968000,
        "tradeId": "",
        "useful": true,
        "userIdEncryption": "",
        "userInfo": "",
        "userVipLevel": 0,
        "userVipPic": ""
      },
      {
        "aliMallSeller": false,
        "anony": true,
        "appendComment": "",
        "attributes": "",
        "attributesMap": "",
        "aucNumId": "",
        "auctionPicUrl": "",
        "auctionPrice": "",
        "auctionSku": "颜色分类:个性黑;尺码:80C",
        "auctionTitle": "",
        "buyCount": 0,
        "carServiceLocation": "",
        "cmsSource": "天猫",
        "displayRatePic": "",
        "displayRateSum": 0,
        "displayUserLink": "",
        "displayUserNick": "c***3",
        "displayUserNumId": "",
        "displayUserRateLink": "",
        "dsr": 0,
        "fromMall": true,
        "fromMemory": 0,
        "gmtCreateTime": 1503281462000,
        "goldUser": true,
        "id": 320990931623,
        "pics": "",
        "picsSmall": "",
        "position": "920-11-0,1;841-11-2,5;",
        "rateContent": "好，很舒服。",
        "rateDate": "2017-08-21 10:11:02",
        "reply": "",
        "sellerId": 470355944,
        "serviceRateContent": "",
        "structuredRateList": [],
        "tamllSweetLevel": 0,
        "tmallSweetPic": "",
        "tradeEndTime": 1503281448000,
        "tradeId": "",
        "useful": true,
        "userIdEncryption": "",
        "userInfo": "",
        "userVipLevel": 0,
        "userVipPic": ""
      },
      {
        "aliMallSeller": false,
        "anony": true,
        "appendComment": "",
        "attributes": "",
        "attributesMap": "",
        "aucNumId": "",
        "auctionPicUrl": "",
        "auctionPrice": "",
        "auctionSku": "颜色分类:个性黑;尺码:75B",
        "auctionTitle": "",
        "buyCount": 0,
        "carServiceLocation": "",
        "cmsSource": "天猫",
        "displayRatePic": "",
        "displayRateSum": 0,
        "displayUserLink": "",
        "displayUserNick": "勤***8",
        "displayUserNumId": "",
        "displayUserRateLink": "",
        "dsr": 0,
        "fromMall": true,
        "fromMemory": 0,
        "gmtCreateTime": 1503279447000,
        "goldUser": false,
        "id": 320929867485,
        "pics": "",
        "picsSmall": "",
        "position": "441-13-10,16;620-13-0,9;",
        "rateContent": "宝贝收到了有点失望，边上都开线了！",
        "rateDate": "2017-08-21 09:37:27",
        "reply": "感谢亲的惠顾！亲,如果产品有任何问题，可以及时与我们在线客服取得联系，您的建议与心声就是我们努力的方向，希望之后可以给您带来更好的服务，希望您能继续支持我们，谢谢！",
        "sellerId": 470355944,
        "serviceRateContent": "",
        "structuredRateList": [],
        "tamllSweetLevel": 0,
        "tmallSweetPic": "",
        "tradeEndTime": 1503064193000,
        "tradeId": "",
        "useful": true,
        "userIdEncryption": "",
        "userInfo": "",
        "userVipLevel": 0,
        "userVipPic": ""
      },
      {
        "aliMallSeller": false,
        "anony": false,
        "appendComment": "",
        "attributes": "",
        "attributesMap": "",
        "aucNumId": "",
        "auctionPicUrl": "",
        "auctionPrice": "",
        "auctionSku": "颜色分类:纪念粉;尺码:85B",
        "auctionTitle": "",
        "buyCount": 0,
        "carServiceLocation": "",
        "cmsSource": "天猫",
        "displayRatePic": "",
        "displayRateSum": 0,
        "displayUserLink": "",
        "displayUserNick": "娜***品",
        "displayUserNumId": "",
        "displayUserRateLink": "",
        "dsr": 0,
        "fromMall": true,
        "fromMemory": 0,
        "gmtCreateTime": 1503278747000,
        "goldUser": false,
        "id": 320881957468,
        "pics": "",
        "picsSmall": "",
        "position": "",
        "rateContent": "好",
        "rateDate": "2017-08-21 09:25:47",
        "reply": "",
        "sellerId": 470355944,
        "serviceRateContent": "",
        "structuredRateList": [],
        "tamllSweetLevel": 0,
        "tmallSweetPic": "",
        "tradeEndTime": 1503132024000,
        "tradeId": "",
        "useful": true,
        "userIdEncryption": "",
        "userInfo": "",
        "userVipLevel": 0,
        "userVipPic": ""
      },
      {
        "aliMallSeller": false,
        "anony": false,
        "appendComment": "",
        "attributes": "",
        "attributesMap": "",
        "aucNumId": "",
        "auctionPicUrl": "",
        "auctionPrice": "",
        "auctionSku": "颜色分类:纪念粉;尺码:75B",
        "auctionTitle": "",
        "buyCount": 0,
        "carServiceLocation": "",
        "cmsSource": "天猫",
        "displayRatePic": "",
        "displayRateSum": 0,
        "displayUserLink": "",
        "displayUserNick": "娜***品",
        "displayUserNumId": "",
        "displayUserRateLink": "",
        "dsr": 0,
        "fromMall": true,
        "fromMemory": 0,
        "gmtCreateTime": 1503278747000,
        "goldUser": false,
        "id": 320881957467,
        "pics": "",
        "picsSmall": "",
        "position": "",
        "rateContent": "好",
        "rateDate": "2017-08-21 09:25:47",
        "reply": "",
        "sellerId": 470355944,
        "serviceRateContent": "",
        "structuredRateList": [],
        "tamllSweetLevel": 0,
        "tmallSweetPic": "",
        "tradeEndTime": 1503132024000,
        "tradeId": "",
        "useful": true,
        "userIdEncryption": "",
        "userInfo": "",
        "userVipLevel": 0,
        "userVipPic": ""
      },
      {
        "aliMallSeller": false,
        "anony": true,
        "appendComment": "",
        "attributes": "",
        "attributesMap": "",
        "aucNumId": "",
        "auctionPicUrl": "",
        "auctionPrice": "",
        "auctionSku": "颜色分类:纪念粉;尺码:80B",
        "auctionTitle": "",
        "buyCount": 0,
        "carServiceLocation": "",
        "cmsSource": "天猫",
        "displayRatePic": "",
        "displayRateSum": 0,
        "displayUserLink": "",
        "displayUserNick": "杨***8",
        "displayUserNumId": "",
        "displayUserRateLink": "",
        "dsr": 0,
        "fromMall": true,
        "fromMemory": 0,
        "gmtCreateTime": 1503235315000,
        "goldUser": false,
        "id": 320939095580,
        "pics": "",
        "picsSmall": "",
        "position": "141-11-0,4;620-11-5,9;",
        "rateContent": "刚好合身，质量不错。",
        "rateDate": "2017-08-20 21:21:55",
        "reply": "",
        "sellerId": 470355944,
        "serviceRateContent": "",
        "structuredRateList": [],
        "tamllSweetLevel": 3,
        "tmallSweetPic": "tmall-grade-t3-18.png",
        "tradeEndTime": 1502959112000,
        "tradeId": "",
        "useful": true,
        "userIdEncryption": "",
        "userInfo": "",
        "userVipLevel": 0,
        "userVipPic": ""
      },
      {
        "aliMallSeller": false,
        "anony": true,
        "appendComment": "",
        "attributes": "",
        "attributesMap": "",
        "aucNumId": "",
        "auctionPicUrl": "",
        "auctionPrice": "",
        "auctionSku": "颜色分类:肤色;尺码:70A",
        "auctionTitle": "",
        "buyCount": 0,
        "carServiceLocation": "",
        "cmsSource": "天猫",
        "displayRatePic": "",
        "displayRateSum": 0,
        "displayUserLink": "",
        "displayUserNick": "l***8",
        "displayUserNumId": "",
        "displayUserRateLink": "",
        "dsr": 0,
        "fromMall": true,
        "fromMemory": 0,
        "gmtCreateTime": 1503222121000,
        "goldUser": false,
        "id": 320998061055,
        "pics": "",
        "picsSmall": "",
        "position": "920-12-0,6;920-13-11,18;920-13-7,10;",
        "rateContent": "一点都不集中，太差了，没见过那么差的",
        "rateDate": "2017-08-20 17:42:01",
        "reply": "亲，感谢您对我们的支持，因每款的设计理念和面料弹性、相同尺码罩杯厚度不同，并且每个人的体型也是不同的，穿着的感受和效果也都是会有所差异哦，建议您下次购物时，可事先参考我们的产品尺寸表、也可咨询售前旺旺，我们会细心为您服务的，期待您的再次光临，祝您生活愉快！",
        "sellerId": 470355944,
        "serviceRateContent": "",
        "structuredRateList": [],
        "tamllSweetLevel": 0,
        "tmallSweetPic": "",
        "tradeEndTime": 1503133916000,
        "tradeId": "",
        "useful": true,
        "userIdEncryption": "",
        "userInfo": "",
        "userVipLevel": 0,
        "userVipPic": ""
      }
    ],
    "searchinfo": "",
    "tags": ""
  }
}